%YAML 1.1
%TAG !u! tag:unity3d.com,2011:
--- !u!1 &5495253067767239877
GameObject:
  m_ObjectHideFlags: 0
  m_CorrespondingSourceObject: {fileID: 0}
  m_PrefabInstance: {fileID: 0}
  m_PrefabAsset: {fileID: 0}
  serializedVersion: 6
  m_Component:
  - component: {fileID: 8351142633503133033}
  m_Layer: 0
  m_Name: Tile1X2
  m_TagString: Untagged
  m_Icon: {fileID: 0}
  m_NavMeshLayer: 0
  m_StaticEditorFlags: 0
  m_IsActive: 1
--- !u!4 &8351142633503133033
Transform:
  m_ObjectHideFlags: 0
  m_CorrespondingSourceObject: {fileID: 0}
  m_PrefabInstance: {fileID: 0}
  m_PrefabAsset: {fileID: 0}
  m_GameObject: {fileID: 5495253067767239877}
  m_LocalRotation: {x: 0, y: 0, z: 0, w: 1}
  m_LocalPosition: {x: 0, y: 0, z: 0}
  m_LocalScale: {x: 1, y: 1, z: 1}
  m_Children:
  - {fileID: 3515802395700329677}
  - {fileID: 856134388268611377}
  m_Father: {fileID: 0}
  m_RootOrder: 0
  m_LocalEulerAnglesHint: {x: 0, y: 0, z: 0}
--- !u!1001 &357380669172026999
PrefabInstance:
  m_ObjectHideFlags: 0
  serializedVersion: 2
  m_Modification:
    m_TransformParent: {fileID: 8351142633503133033}
    m_Modifications:
    - target: {fileID: 8371399143471210329, guid: bec2a78bf002ec941b43e7b2502413f4,
        type: 3}
      propertyPath: m_Name
      value: DarkPlatform
      objectReference: {fileID: 0}
    - target: {fileID: 3764737116332389050, guid: bec2a78bf002ec941b43e7b2502413f4,
        type: 3}
      propertyPath: m_LocalPosition.x
      value: 0
      objectReference: {fileID: 0}
    - target: {fileID: 3764737116332389050, guid: bec2a78bf002ec941b43e7b2502413f4,
        type: 3}
      propertyPath: m_LocalPosition.y
      value: -0.05
      objectReference: {fileID: 0}
    - target: {fileID: 3764737116332389050, guid: bec2a78bf002ec941b43e7b2502413f4,
        type: 3}
      propertyPath: m_LocalPosition.z
      value: 0
      objectReference: {fileID: 0}
    - target: {fileID: 3764737116332389050, guid: bec2a78bf002ec941b43e7b2502413f4,
        type: 3}
      propertyPath: m_LocalRotation.x
      value: 0
      objectReference: {fileID: 0}
    - target: {fileID: 3764737116332389050, guid: bec2a78bf002ec941b43e7b2502413f4,
        type: 3}
      propertyPath: m_LocalRotation.y
      value: 0
      objectReference: {fileID: 0}
    - target: {fileID: 3764737116332389050, guid: bec2a78bf002ec941b43e7b2502413f4,
        type: 3}
      propertyPath: m_LocalRotation.z
      value: 0
      objectReference: {fileID: 0}
    - target: {fileID: 3764737116332389050, guid: bec2a78bf002ec941b43e7b2502413f4,
        type: 3}
      propertyPath: m_LocalRotation.w
      value: 1
      objectReference: {fileID: 0}
    - target: {fileID: 3764737116332389050, guid: bec2a78bf002ec941b43e7b2502413f4,
        type: 3}
      propertyPath: m_RootOrder
      value: 0
      objectReference: {fileID: 0}
    - target: {fileID: 3764737116332389050, guid: bec2a78bf002ec941b43e7b2502413f4,
        type: 3}
      propertyPath: m_LocalEulerAnglesHint.x
      value: 0
      objectReference: {fileID: 0}
    - target: {fileID: 3764737116332389050, guid: bec2a78bf002ec941b43e7b2502413f4,
        type: 3}
      propertyPath: m_LocalEulerAnglesHint.y
      value: 0
      objectReference: {fileID: 0}
    - target: {fileID: 3764737116332389050, guid: bec2a78bf002ec941b43e7b2502413f4,
        type: 3}
      propertyPath: m_LocalEulerAnglesHint.z
      value: 0
      objectReference: {fileID: 0}
    m_RemovedComponents: []
  m_SourcePrefab: {fileID: 100100000, guid: bec2a78bf002ec941b43e7b2502413f4, type: 3}
--- !u!4 &3515802395700329677 stripped
Transform:
  m_CorrespondingSourceObject: {fileID: 3764737116332389050, guid: bec2a78bf002ec941b43e7b2502413f4,
    type: 3}
  m_PrefabInstance: {fileID: 357380669172026999}
  m_PrefabAsset: {fileID: 0}
--- !u!1001 &560530325172755412
PrefabInstance:
  m_ObjectHideFlags: 0
  serializedVersion: 2
  m_Modification:
    m_TransformParent: {fileID: 8351142633503133033}
    m_Modifications:
    - target: {fileID: 7137287547356109966, guid: 17828e2a06fc4944cba5f90b641f7f33,
        type: 3}
      propertyPath: m_Name
      value: LightPlatform
      objectReference: {fileID: 0}
    - target: {fileID: 875667470516399333, guid: 17828e2a06fc4944cba5f90b641f7f33,
        type: 3}
      propertyPath: m_LocalPosition.x
      value: 0
      objectReference: {fileID: 0}
    - target: {fileID: 875667470516399333, guid: 17828e2a06fc4944cba5f90b641f7f33,
        type: 3}
      propertyPath: m_LocalPosition.y
      value: -0.05
      objectReference: {fileID: 0}
    - target: {fileID: 875667470516399333, guid: 17828e2a06fc4944cba5f90b641f7f33,
        type: 3}
      propertyPath: m_LocalPosition.z
      value: -1
      objectReference: {fileID: 0}
    - target: {fileID: 875667470516399333, guid: 17828e2a06fc4944cba5f90b641f7f33,
        type: 3}
      propertyPath: m_LocalRotation.x
      value: 0
      objectReference: {fileID: 0}
    - target: {fileID: 875667470516399333, guid: 17828e2a06fc4944cba5f90b641f7f33,
        type: 3}
      propertyPath: m_LocalRotation.y
      value: 0
      objectReference: {fileID: 0}
    - target: {fileID: 875667470516399333, guid: 17828e2a06fc4944cba5f90b641f7f33,
        type: 3}
      propertyPath: m_LocalRotation.z
      value: 0
      objectReference: {fileID: 0}
    - target: {fileID: 875667470516399333, guid: 17828e2a06fc4944cba5f90b641f7f33,
        type: 3}
      propertyPath: m_LocalRotation.w
      value: 1
      objectReference: {fileID: 0}
    - target: {fileID: 875667470516399333, guid: 17828e2a06fc4944cba5f90b641f7f33,
        type: 3}
      propertyPath: m_RootOrder
      value: 1
      objectReference: {fileID: 0}
    - target: {fileID: 875667470516399333, guid: 17828e2a06fc4944cba5f90b641f7f33,
        type: 3}
      propertyPath: m_LocalEulerAnglesHint.x
      value: 0
      objectReference: {fileID: 0}
    - target: {fileID: 875667470516399333, guid: 17828e2a06fc4944cba5f90b641f7f33,
        type: 3}
      propertyPath: m_LocalEulerAnglesHint.y
      value: 0
      objectReference: {fileID: 0}
    - target: {fileID: 875667470516399333, guid: 17828e2a06fc4944cba5f90b641f7f33,
        type: 3}
      propertyPath: m_LocalEulerAnglesHint.z
      value: 0
      objectReference: {fileID: 0}
    m_RemovedComponents: []
  m_SourcePrefab: {fileID: 100100000, guid: 17828e2a06fc4944cba5f90b641f7f33, type: 3}
--- !u!4 &856134388268611377 stripped
Transform:
  m_CorrespondingSourceObject: {fileID: 875667470516399333, guid: 17828e2a06fc4944cba5f90b641f7f33,
    type: 3}
  m_PrefabInstance: {fileID: 560530325172755412}
  m_PrefabAsset: {fileID: 0}
